{
"image_filename":{"name":"scene/head/image/filename","in_type":"string","fix_len":[]},
"image_encoded":{"name":"scene/head/image/encoded","in_type":"string","fix_len":[]},
"image_shape":{"name":"scene/head/image/shape","in_type":"int64","fix_len":[3]},

"depthmap":{"name":"scene/head/image/depthmap","in_type":"float32","fix_len":[64,64,1]},

"joint_name":{"name":"scene/head/joint/name","in_type":"string","fix_len":[21]},
"joint_u":{"name":"scene/head/joint/u","in_type":"float32","fix_len":[21]},
"joint_v":{"name":"scene/head/joint/v","in_type":"float32","fix_len":[21]},
"joint_d":{"name":"scene/head/joint/d","in_type":"float32","fix_len":[21]},
"joint_heatmaps":{"name":"scene/head/joint/heatmaps","in_type":"float32","fix_len":[64,64,21]}
}
